build (read-only)/Motor_tb.vcd
$date
	Sun Dec  4 08:13:14 2016
$end
$version
	Icarus Verilog
$end
$timescale
	1ns
$end
$scope module Motor_tb $end
$var wire 1 ! pulseM $end
$var reg 1 " clkmotor $end
$scope module uut $end
$var wire 1 " clkmotor $end
$var reg 3 # counter [2:0] $end
$var reg 1 ! pulseM $end
$upscope $end
$upscope $end
$enddefinitions $end
#0
$dumpvars
b0 #
0"
1!
$end
#5
b1 #
1"
#10
0"
#15
b10 #
1"
#20
0"
#25
b11 #
1"
#30
0"
#35
0!
b100 #
1"
#40
0"
#45
b101 #
1"
#50
0"
#55
b110 #
1"
#60
0"
#65
b111 #
1"
#70
0"
#75
1!
b0 #
1"
#80
0"
#85
b1 #
1"
#90
0"
#95
b10 #
1"
#100
0"
#105
b11 #
1"
#110
0"
#115
0!
b100 #
1"
#120
0"
#125
b101 #
1"
#130
0"
#135
b110 #
1"
#140
0"
#145
b111 #
1"
#150
0"
#155
1!
b0 #
1"
#160
0"
#165
b1 #
1"
#170
0"
#175
b10 #
1"
#180
0"
#185
b11 #
1"
#190
0"
#195
0!
b100 #
1"
#200
0"
#205
b101 #
1"
#210
0"
#215
b110 #
1"
#220
0"
#225
b111 #
1"
#230
0"
#235
1!
b0 #
1"
#240
0"
#245
b1 #
1"
#250
0"
#255
b10 #
1"
#260
0"
#265
b11 #
1"
#270
0"
#275
0!
b100 #
1"
#280
0"
#285
b101 #
1"
#290
0"
#295
b110 #
1"
#300
0"
#305
b111 #
1"
#310
0"
#315
1!
b0 #
1"
#320
0"
#325
b1 #
1"
#330
0"
#335
b10 #
1"
#340
0"
#345
b11 #
1"
#350
0"
#355
0!
b100 #
1"
#360
0"
#365
b101 #
1"
#370
0"
#375
b110 #
1"
#380
0"
#385
b111 #
1"
#390
0"
#395
1!
b0 #
1"
#400
0"
#405
b1 #
1"
#410
0"
#415
b10 #
1"
#420
0"
#425
b11 #
1"
#430
0"
#435
0!
b100 #
1"
#440
0"
#445
b101 #
1"
#450
0"
#455
b110 #
1"
#460
0"
#465
b111 #
1"
#470
0"
#475
1!
b0 #
1"
#480
0"
#485
b1 #
1"
#490
0"
#495
b10 #
1"
#500
0"
#505
b11 #
1"
#510
0"
#515
0!
b100 #
1"
#520
0"
#525
b101 #
1"
#530
0"
#535
b110 #
1"
#540
0"
#545
b111 #
1"
#550
0"
#555
1!
b0 #
1"
#560
0"
#565
b1 #
1"
#570
0"
#575
b10 #
1"
#580
0"
#585
b11 #
1"
#590
0"
#595
0!
b100 #
1"
#600
0"
#605
b101 #
1"
#610
0"
#615
b110 #
1"
#620
0"
#625
b111 #
1"
#630
0"
#635
1!
b0 #
1"
#640
0"
#645
b1 #
1"
#650
0"
#655
b10 #
1"
#660
0"
#665
b11 #
1"
#670
0"
#675
0!
b100 #
1"
#680
0"
#685
b101 #
1"
#690
0"
#695
b110 #
1"
#700
0"
#705
b111 #
1"
#710
0"
#715
1!
b0 #
1"
#720
0"
#725
b1 #
1"
#730
0"
#735
b10 #
1"
#740
0"
#745
b11 #
1"
#750
0"
#755
0!
b100 #
1"
#760
0"
#765
b101 #
1"
#770
0"
#775
b110 #
1"
#780
0"
#785
b111 #
1"
#790
0"
#795
1!
b0 #
1"
#800
0"
#805
b1 #
1"
#810
0"
#815
b10 #
1"
#820
0"
#825
b11 #
1"
#830
0"
#835
0!
b100 #
1"
#840
0"
#845
b101 #
1"
#850
0"
#855
b110 #
1"
#860
0"
#865
b111 #
1"
#870
0"
#875
1!
b0 #
1"
#880
0"
#885
b1 #
1"
#890
0"
#895
b10 #
1"
#900
0"
#905
b11 #
1"
#910
0"
#915
0!
b100 #
1"
#920
0"
#925
b101 #
1"
#930
0"
#935
b110 #
1"
#940
0"
#945
b111 #
1"
#950
0"
#955
1!
b0 #
1"
#960
0"
#965
b1 #
1"
#970
0"
#975
b10 #
1"
#980
0"
#985
b11 #
1"
#990
0"
#995
0!
b100 #
1"
