build (read-only)/Mux_tb.vcd
$date
	Sun Dec  4 11:18:07 2016
$end
$version
	Icarus Verilog
$end
$timescale
	1ns
$end
$scope module Mux_tb $end
$var wire 2 ! out [1:0] $end
$var reg 2 " aa [1:0] $end
$var reg 2 # bb [1:0] $end
$var reg 2 $ cc [1:0] $end
$var reg 2 % dd [1:0] $end
$var reg 2 & sel [1:0] $end
$var integer 32 ' a_i [31:0] $end
$var integer 32 ( b_i [31:0] $end
$var integer 32 ) c_i [31:0] $end
$var integer 32 * d_i [31:0] $end
$scope module uut $end
$var wire 2 + aa [1:0] $end
$var wire 2 , bb [1:0] $end
$var wire 2 - cc [1:0] $end
$var wire 2 . dd [1:0] $end
$var wire 2 / sel [1:0] $end
$var reg 2 0 out [1:0] $end
$upscope $end
$upscope $end
$enddefinitions $end
#0
$dumpvars
b0 0
b10 /
b0 .
b0 -
b0 ,
b0 +
b0 *
b0 )
b0 (
b0 '
b10 &
b0 %
b0 $
b0 #
b0 "
b0 !
$end
#20
b1 *
#25
b1 %
b1 .
#40
b10 *
#45
b10 %
b10 .
#60
b11 *
#65
b11 %
b11 .
#80
b1 )
b0 *
#85
b0 %
b0 .
#90
b1 !
b1 0
b1 $
b1 -
#100
b1 *
#105
b1 %
b1 .
#120
b10 *
#125
b10 %
b10 .
#140
b11 *
#145
b11 %
b11 .
#160
b10 )
b0 *
#165
b0 %
b0 .
#170
b10 !
b10 0
b10 $
b10 -
#180
b1 *
#185
b1 %
b1 .
#200
b10 *
#205
b10 %
b10 .
#220
b11 *
#225
b11 %
b11 .
#240
b11 )
b0 *
#245
b0 %
b0 .
#250
b11 !
b11 0
b11 $
b11 -
#260
b1 *
#265
b1 %
b1 .
#280
b10 *
#285
b10 %
b10 .
#300
b11 *
#305
b11 %
b11 .
#320
b1 (
b0 )
b0 *
#325
b0 %
b0 .
#330
b0 !
b0 0
b0 $
b0 -
#335
b1 #
b1 ,
#340
b1 *
#345
b1 %
b1 .
#360
b10 *
#365
b10 %
b10 .
#380
b11 *
#385
b11 %
b11 .
#400
b1 )
b0 *
#405
b0 %
b0 .
#410
b1 !
b1 0
b1 $
b1 -
#420
b1 *
#425
b1 %
b1 .
#440
b10 *
#445
b10 %
b10 .
#460
b11 *
#465
b11 %
b11 .
#480
b10 )
b0 *
#485
b0 %
b0 .
#490
b10 !
b10 0
b10 $
b10 -
#500
b1 *
#505
b1 %
b1 .
#520
b10 *
#525
b10 %
b10 .
#540
b11 *
#545
b11 %
b11 .
#560
b11 )
b0 *
#565
b0 %
b0 .
#570
b11 !
b11 0
b11 $
b11 -
#580
b1 *
#585
b1 %
b1 .
#600
b10 *
#605
b10 %
b10 .
#620
b11 *
#625
b11 %
b11 .
#640
b10 (
b0 )
b0 *
#645
b0 %
b0 .
#650
b0 !
b0 0
b0 $
b0 -
#655
b10 #
b10 ,
#660
b1 *
#665
b1 %
b1 .
#680
b10 *
#685
b10 %
b10 .
#700
b11 *
#705
b11 %
b11 .
#720
b1 )
b0 *
#725
b0 %
b0 .
#730
b1 !
b1 0
b1 $
b1 -
#740
b1 *
#745
b1 %
b1 .
#760
b10 *
#765
b10 %
b10 .
#780
b11 *
#785
b11 %
b11 .
#800
b10 )
b0 *
#805
b0 %
b0 .
#810
b10 !
b10 0
b10 $
b10 -
#820
b1 *
#825
b1 %
b1 .
#840
b10 *
#845
b10 %
b10 .
#860
b11 *
#865
b11 %
b11 .
#880
b11 )
b0 *
#885
b0 %
b0 .
#890
b11 !
b11 0
b11 $
b11 -
#900
b1 *
#905
b1 %
b1 .
#920
b10 *
#925
b10 %
b10 .
#940
b11 *
#945
b11 %
b11 .
#960
b11 (
b0 )
b0 *
#965
b0 %
b0 .
#970
b0 !
b0 0
b0 $
b0 -
#975
b11 #
b11 ,
#980
b1 *
#985
b1 %
b1 .
#1000
b10 *
